Neurowissenschaft Computerlab - Data cleaning
…
glimpse(mentalchronometry)

Rows: 2,519
Columns: 7
$ subj         <fct> 8554, 8554, 8554, 8554, 8554, 8554, 8554, 8554, 8554, 855…
$ trial_number <dbl> 1, 2, 3, 4, 5, 6, 7, 8, 9, 10, 11, 12, 13, 14, 15, 16, 17…
$ block        <fct> reaction, reaction, reaction, reaction, reaction, reactio…
$ stimulus     <fct> circle, square, square, square, circle, square, square, c…
$ RT           <dbl> 311, 269, 317, 325, 240, 262, 295, 277, 288, 309, 319, 29…
$ handedness   <fct> Right, Right, Right, Right, Right, Right, Right, Right, R…
$ gender       <fct> female, female, female, female, female, female, female, f…

mentalchronometry

# A tibble: 2,519 × 7
   subj  trial_number block    stimulus    RT handedness gender
   <fct>        <dbl> <fct>    <fct>    <dbl> <fct>      <fct> 
 1 8554             1 reaction circle     311 Right      female
 2 8554             2 reaction square     269 Right      female
 3 8554             3 reaction square     317 Right      female
 4 8554             4 reaction square     325 Right      female
 5 8554             5 reaction circle     240 Right      female
 6 8554             6 reaction square     262 Right      female
 7 8554             7 reaction square     295 Right      female
 8 8554             8 reaction circle     277 Right      female
 9 8554             9 reaction square     288 Right      female
10 8554            10 reaction circle     309 Right      female
# … with 2,509 more rows
…
Wir haben insgesamt 63 Trials, welche nach unseren Kriterien Ausreisser sein könnten.

mentalchronometry_cleaned |> 
  filter(trial_type != "OK")

# A tibble: 63 × 11
   subj  trial_number block    stimulus    RT handedness  gender mean_C  sd_C
   <fct>        <dbl> <fct>    <fct>    <dbl> <fct>       <fct>   <dbl> <dbl>
 1 8552            11 goNoGo   square     690 Right       male     442.  104.
 2 8552            14 goNoGo   square     727 Right       male     442.  104.
 3 8552            17 goNoGo   square     697 Right       male     442.  104.
 4 8552            18 goNoGo   square     720 Right       male     442.  104.
 5 8551             3 reaction square     712 right       male     311.  157.
 6 8550            16 reaction square      54 right       male     311.  157.
 7 8550             4 goNoGo   circle    1010 right       male     442.  104.
 8 8549            11 reaction square    2244 Righthanded male     311.  157.
 9 8549            20 reaction square    1087 Righthanded male     311.  157.
10 8549            12 goNoGo   square     778 Righthanded male     442.  104.
# … with 53 more rows, and 2 more variables: trial_type <fct>, trial <int>
…
